<svg width="21" height="18" viewBox="0 0 21 18" fill="none" xmlns="http://www.w3.org/2000/svg">
<path d="M9.45493 15.5408L3.91421 10H19.5C20.0523 10 20.5 9.5523 20.5 9C20.5 8.4478 20.0523 8 19.5 8H3.91421L9.45493 2.4593C9.84543 2.06878 9.84543 1.43561 9.45493 1.04509C9.06443 0.654567 8.43126 0.654567 8.04074 1.04509L0.79289 8.2929C0.40237 8.6835 0.40237 9.3166 0.79289 9.7071L8.04074 16.955C8.43126 17.3455 9.06443 17.3455 9.45493 16.955C9.84543 16.5645 9.84543 15.9313 9.45493 15.5408Z" fill="#3171EB"/>
</svg>
