<svg width="32" height="32" viewBox="0 0 32 32" fill="none" xmlns="http://www.w3.org/2000/svg">
<path d="M15.95 14.55V9C17.4 9 18.8 9.6 19.85 10.6C20.9 11.65 21.45 13.05 21.45 14.5H15.95V14.55Z" fill="#F28728"/>
<path d="M8 9V6C8 5.45 8.45 5 9 5H12L8 9Z" fill="#00A650"/>
<path d="M25.25 7.55L21.4 3.7C20.95 3.25 20.35 3 19.65 3H8.5C7.1 3 6 4.1 6 5.5V26.5C6 27.9 7.1 29 8.5 29H23.5C24.9 29 26 27.9 26 26.5V9.35C26 8.65 25.75 8.05 25.25 7.55ZM21 4.7L24.3 8H21.5C21.2 8 21 7.8 21 7.5V4.7ZM25 26.5C25 27.35 24.35 28 23.5 28H8.5C7.65 28 7 27.35 7 26.5C7.4 26.8 7.95 27 8.5 27H23.5C24.05 27 24.6 26.8 25 26.5ZM25 24.5C25 25.35 24.35 26 23.5 26H8.5C7.65 26 7 25.35 7 24.5V5.5C7 4.65 7.65 4 8.5 4H19.65C19.75 4 19.85 4 20 4.05V7.5C20 8.35 20.65 9 21.5 9H24.95C24.95 9.1 25 9.2 25 9.35V24.5Z" fill="#3171EB"/>
<path d="M23 21H9V22H23V21Z" fill="#00A650"/>
<path d="M19.25 23H12.75V24H19.25V23Z" fill="#00A650"/>
<path d="M15.95 19.55C18.55 19.55 20.7 17.55 20.95 15H21.5C21.8 15 22 14.8 22 14.5C22 12.9 21.35 11.35 20.25 10.25C19.15 9.15 17.6 8.5 16 8.5C15.7 8.5 15.5 8.7 15.5 9V9.55C12.95 9.8 10.95 11.95 10.95 14.55C10.95 17.3 13.2 19.55 15.95 19.55ZM16.45 9.55C17.6 9.65 18.7 10.2 19.5 11C20.3 11.8 20.85 12.9 20.95 14.05H16.45V9.55ZM15.95 15.05H17.35C17.15 15.65 16.6 16.05 15.95 16.05C15.1 16.05 14.45 15.35 14.45 14.55C14.45 13.9 14.85 13.35 15.45 13.15V14.55C15.45 14.8 15.7 15.05 15.95 15.05ZM15.45 10.55V12.1C14.3 12.35 13.45 13.35 13.45 14.55C13.45 15.95 14.6 17.05 15.95 17.05C17.15 17.05 18.2 16.2 18.4 15.05H19.95C19.7 17.05 18 18.6 15.95 18.6C13.75 18.6 11.9 16.8 11.9 14.55C11.95 12.5 13.5 10.8 15.45 10.55Z" fill="#00A650"/>
</svg>
