<svg width="18" height="10" viewBox="0 0 18 10" fill="none" xmlns="http://www.w3.org/2000/svg">
<path d="M2.46394 0.545087L9.0047 7.0858L15.5454 0.545087C15.9359 0.154567 16.5691 0.154567 16.9596 0.545087C17.3501 0.935617 17.3501 1.56878 16.9596 1.9593L9.7118 9.2071C9.5242 9.3947 9.2699 9.5 9.0047 9.5C8.7395 9.5 8.4851 9.3947 8.2976 9.2071L1.04973 1.9593C1.00091 1.91049 0.958199 1.85788 0.921589 1.80243C0.665309 1.41428 0.708018 0.886797 1.04973 0.545087C1.44025 0.154567 2.07342 0.154567 2.46394 0.545087Z" fill="#243757"/>
</svg>
