<svg width="16" height="16" viewBox="0 0 16 16" fill="none" xmlns="http://www.w3.org/2000/svg">
<path d="M4.11512 2.63623H11.9509L0.930098 13.657C0.850868 13.7363 0.787709 13.8255 0.740629 13.9206C0.613669 14.1772 0.603599 14.477 0.710429 14.7404C0.759249 14.8608 0.832468 14.9736 0.930098 15.0713C1.32062 15.4618 1.95379 15.4618 2.34431 15.0713L13.3651 4.05044V11.8862C13.3651 12.4385 13.8128 12.8862 14.3651 12.8862C14.9174 12.8862 15.3651 12.4385 15.3651 11.8862V1.63623C15.3651 1.60171 15.3634 1.5676 15.36 1.53399C15.3099 1.04108 14.9019 0.654 14.3999 0.63683C14.3884 0.63643 14.3768 0.63623 14.3651 0.63623H4.11512C3.56284 0.63623 3.11513 1.08394 3.11513 1.63623C3.11512 2.18851 3.56284 2.63623 4.11512 2.63623Z" fill="white"/>
</svg>
