<svg width="64" height="64" viewBox="0 0 64 64" fill="none" xmlns="http://www.w3.org/2000/svg">
<g opacity="0.96">
<path d="M43 33C43 33.552 42.552 34 42 34H32C31.448 34 31 33.552 31 33V31C31 30.448 31.448 30 32 30H42C42.552 30 43 30.448 43 31V33Z" fill="#F28728"/>
<path d="M47 6C42.17 6 38.13 9.44 37.2 14H10C8.35 14 7 15.35 7 17C7 18.3 7.84 19.4 9 19.82V44C9 45.65 10.35 47 12 47H21.74C21.71 47.09 21.67 47.18 21.65 47.27L19.06 57.76L20.03 58H21.06L22.29 53H37.48L38.72 58H39.7L40.62 57.78L38.13 47.27C38.1 47.18 38.07 47.09 38.05 47H46C47.65 47 49 45.65 49 44V25.8C53.56 24.87 57 20.83 57 16C57 10.49 52.51 6 47 6ZM9 17C9 16.45 9.45 16 10 16H37C37 16.68 37.07 17.35 37.2 18H10C9.45 18 9 17.55 9 17ZM22.79 51L23.59 47.75C23.7 47.31 24.1 47 24.56 47H35C36 47 36.08 47.31 36.18 47.73L36.99 51H22.79ZM26 45V44H34V45H26ZM47 44C47 44.55 46.55 45 46 45H36V44C36 42.9 35.1 42 34 42H26C24.9 42 24 42.9 24 44V45H12C11.45 45 11 44.55 11 44V20H37.84C39.39 23.53 42.91 26 47 26V44ZM47 24C42.59 24 39 20.41 39 16C39 11.59 42.59 8 47 8C51.41 8 55 11.59 55 16C55 20.41 51.41 24 47 24Z" fill="#3171EB"/>
<path d="M46 16H48V22H46V16Z" fill="#F28728"/>
<path d="M47 9.99902C46.4696 9.99902 45.9609 10.2097 45.5858 10.5848C45.2107 10.9599 45 11.4686 45 11.999C45 12.5295 45.2107 13.0382 45.5858 13.4132C45.9609 13.7883 46.4696 13.999 47 13.999C47.5304 13.999 48.0391 13.7883 48.4142 13.4132C48.7893 13.0382 49 12.5295 49 11.999C49 11.4686 48.7893 10.9599 48.4142 10.5848C48.0391 10.2097 47.5304 9.99902 47 9.99902Z" fill="#F28728"/>
<path d="M15 24H27V26H15V24Z" fill="#00A650"/>
<path d="M15 28H27V30H15V28Z" fill="#00A650"/>
<path d="M15 32H27V34H15V32Z" fill="#00A650"/>
<path d="M15 36H27V38H15V36Z" fill="#00A650"/>
<path d="M31 36H43V38H31V36Z" fill="#00A650"/>
</g>
</svg>
